{
  "products": [
    {
      "id": 1,
      "name": "iPhone X",
      "price": 1000,
      "imageUrl": "1.jpg",
      "description": "iPhone X Modeli",
      "category": "Telefon"
    },
    {
      "id": 2,
      "name": "iPhone XR",
      "price": 2000,
      "imageUrl": "2.jpg",
      "description": "iPhone XR Modeli",
      "category": "Telefon"
    },
    {
      "id": 3,
      "name": "iPhone XS",
      "price": 3000,
      "imageUrl": "3.jpg",
      "description": "iPhone XS Modeli",
      "category": "Telefon"
    },
    {
      "id": 4,
      "name": "iPhone 11",
      "price": 4000,
      "imageUrl": "4.jpg",
      "description": "iPhone 11 Modeli",
      "category": "Bilgisayar"
    },
    {
      "id": 5,
      "name": "iPhone 12",
      "price": 5000,
      "imageUrl": "5.jpg",
      "description": "iPhone 12 Modeli",
      "category": "Bilgisayar"
    }
  ],
  "categories": [
    {
      "id": 1,
      "name": "Telefon"
    },
    {
      "id": 2,
      "name": "Bilgisayar"
    },
    {
      "id": 3,
      "name": "Tablet"
    }
  ],
  "orders": [
    {
      "cart": {
        "items": [
          {
            "product": {
              "id": 1,
              "name": "iPhone X",
              "price": 1000,
              "imageUrl": "1.jpg",
              "description": "iPhone X Modeli",
              "category": "Telefon"
            },
            "quantity": 1
          }
        ],
        "itemCount": 1,
        "total": 1000
      },
      "isSent": false,
      "name": "Fatih",
      "address": "Merter",
      "city": "İstanbul",
      "phone": "5344207788",
      "email": "fatihsonmez-95@hotmail.com",
      "id": 1
    },
    {
      "cart": {
        "items": [
          {
            "product": {
              "id": 1,
              "name": "iPhone X",
              "price": 1000,
              "imageUrl": "1.jpg",
              "description": "iPhone X Modeli",
              "category": "Telefon"
            },
            "quantity": 3
          },
          {
            "product": {
              "id": 2,
              "name": "iPhone XR",
              "price": 2000,
              "imageUrl": "2.jpg",
              "description": "iPhone XR Modeli",
              "category": "Telefon"
            },
            "quantity": 7
          }
        ],
        "itemCount": 10,
        "total": 17000
      },
      "isSent": false,
      "name": "adasd",
      "address": "adsdas",
      "city": "adada",
      "phone": "adasd",
      "email": "adasd",
      "id": 2
    },
    {
      "cart": {
        "items": [
          {
            "product": {
              "id": 1,
              "name": "iPhone X",
              "price": 1000,
              "imageUrl": "1.jpg",
              "description": "iPhone X Modeli",
              "category": "Telefon"
            },
            "quantity": 2
          }
        ],
        "itemCount": 2,
        "total": 2000
      },
      "isSent": false,
      "name": "Fatih",
      "address": "Sönmez",
      "city": "İstanbul",
      "phone": "5344207788",
      "email": "f",
      "id": 3
    }
  ]
}